2020-03-13 14:50:11.7872||80000004-0000-fc00-b63f-84710c7967bb|Microsoft.AspNetCore.Hosting.Diagnostics|INF|Request starting HTTP/1.1 GET http://localhost:8888/swagger/index.html  
2020-03-13 14:50:12.0452||80000004-0000-fc00-b63f-84710c7967bb|Microsoft.AspNetCore.HttpsPolicy.HttpsRedirectionMiddleware|WRN|Failed to determine the https port for redirect.
2020-03-13 14:50:14.0477||80000004-0000-fc00-b63f-84710c7967bb|Microsoft.AspNetCore.Hosting.Diagnostics|INF|Request finished in 2279.8597ms 200 text/html;charset=utf-8
2020-03-13 14:50:20.7454||80000004-0002-ff00-b63f-84710c7967bb|Microsoft.AspNetCore.Hosting.Diagnostics|INF|Request starting HTTP/1.1 GET http://localhost:8888/swagger/v1/swagger.json  
2020-03-13 14:50:25.5280||80000004-0002-ff00-b63f-84710c7967bb|Microsoft.AspNetCore.Hosting.Diagnostics|INF|Request finished in 4753.2091ms 200 application/json;charset=utf-8
2020-03-13 14:51:20.0146||80000005-0003-fc00-b63f-84710c7967bb|Microsoft.AspNetCore.Hosting.Diagnostics|INF|Request starting HTTP/1.1 POST http://localhost:8888/api/IpnProcessor/Receieve application/x-www-form-urlencoded 840
2020-03-13 14:51:20.1246||80000005-0003-fc00-b63f-84710c7967bb|Microsoft.AspNetCore.Routing.EndpointMiddleware|INF|Executing endpoint 'IntegrationTest.Controllers.IpnProcessorController.Receive (IntegrationTest)'
2020-03-13 14:51:20.1955||80000005-0003-fc00-b63f-84710c7967bb|Microsoft.AspNetCore.Mvc.Infrastructure.ControllerActionInvoker|INF|Route matched with {action = "Receive", controller = "IpnProcessor"}. Executing controller action with signature Microsoft.AspNetCore.Mvc.IActionResult Receive() on controller IntegrationTest.Controllers.IpnProcessorController (IntegrationTest).
2020-03-13 14:51:25.8854||80000005-0003-fc00-b63f-84710c7967bb|Microsoft.AspNetCore.Mvc.StatusCodeResult|INF|Executing HttpStatusCodeResult, setting HTTP status code 200
2020-03-13 14:51:25.9075||80000005-0003-fc00-b63f-84710c7967bb|Microsoft.AspNetCore.Mvc.Infrastructure.ControllerActionInvoker|INF|Executed action IntegrationTest.Controllers.IpnProcessorController.Receive (IntegrationTest) in 5691.933ms
2020-03-13 14:51:25.9091||80000005-0003-fc00-b63f-84710c7967bb|Microsoft.AspNetCore.Routing.EndpointMiddleware|INF|Executed endpoint 'IntegrationTest.Controllers.IpnProcessorController.Receive (IntegrationTest)'
2020-03-13 14:51:25.9118||80000005-0003-fc00-b63f-84710c7967bb|Microsoft.AspNetCore.Hosting.Diagnostics|INF|Request finished in 5898.6013ms 200 
2020-03-13 14:52:24.0520||80000006-0000-fc00-b63f-84710c7967bb|Microsoft.AspNetCore.Hosting.Diagnostics|INF|Request starting HTTP/1.1 POST http://localhost:8888/api/IpnProcessor/Receieve application/x-www-form-urlencoded 862
2020-03-13 14:52:24.0538||80000006-0000-fc00-b63f-84710c7967bb|Microsoft.AspNetCore.Routing.EndpointMiddleware|INF|Executing endpoint 'IntegrationTest.Controllers.IpnProcessorController.Receive (IntegrationTest)'
2020-03-13 14:52:24.0550||80000006-0000-fc00-b63f-84710c7967bb|Microsoft.AspNetCore.Mvc.Infrastructure.ControllerActionInvoker|INF|Route matched with {action = "Receive", controller = "IpnProcessor"}. Executing controller action with signature Microsoft.AspNetCore.Mvc.IActionResult Receive() on controller IntegrationTest.Controllers.IpnProcessorController (IntegrationTest).
2020-03-13 14:52:46.1740||80000006-0000-fc00-b63f-84710c7967bb|Microsoft.AspNetCore.Mvc.StatusCodeResult|INF|Executing HttpStatusCodeResult, setting HTTP status code 200
2020-03-13 14:52:46.1765||80000006-0000-fc00-b63f-84710c7967bb|Microsoft.AspNetCore.Mvc.Infrastructure.ControllerActionInvoker|INF|Executed action IntegrationTest.Controllers.IpnProcessorController.Receive (IntegrationTest) in 22120.831ms
2020-03-13 14:52:46.1801||80000006-0000-fc00-b63f-84710c7967bb|Microsoft.AspNetCore.Routing.EndpointMiddleware|INF|Executed endpoint 'IntegrationTest.Controllers.IpnProcessorController.Receive (IntegrationTest)'
2020-03-13 14:52:46.1914||80000006-0000-fc00-b63f-84710c7967bb|Microsoft.AspNetCore.Hosting.Diagnostics|INF|Request finished in 22138.8422ms 200 
2020-03-13 14:53:52.3651||80000007-0003-fc00-b63f-84710c7967bb|Microsoft.AspNetCore.Hosting.Diagnostics|INF|Request starting HTTP/1.1 POST http://localhost:8888/api/IpnProcessor/Receieve application/x-www-form-urlencoded 884
2020-03-13 14:53:52.3763||80000007-0003-fc00-b63f-84710c7967bb|Microsoft.AspNetCore.Routing.EndpointMiddleware|INF|Executing endpoint 'IntegrationTest.Controllers.IpnProcessorController.Receive (IntegrationTest)'
2020-03-13 14:53:52.3829||80000007-0003-fc00-b63f-84710c7967bb|Microsoft.AspNetCore.Mvc.Infrastructure.ControllerActionInvoker|INF|Route matched with {action = "Receive", controller = "IpnProcessor"}. Executing controller action with signature Microsoft.AspNetCore.Mvc.IActionResult Receive() on controller IntegrationTest.Controllers.IpnProcessorController (IntegrationTest).
2020-03-13 14:53:54.5533||80000007-0003-fc00-b63f-84710c7967bb|Microsoft.AspNetCore.Mvc.StatusCodeResult|INF|Executing HttpStatusCodeResult, setting HTTP status code 200
2020-03-13 14:53:54.5615||80000007-0003-fc00-b63f-84710c7967bb|Microsoft.AspNetCore.Mvc.Infrastructure.ControllerActionInvoker|INF|Executed action IntegrationTest.Controllers.IpnProcessorController.Receive (IntegrationTest) in 2177.2231ms
2020-03-13 14:53:54.5627||80000007-0003-fc00-b63f-84710c7967bb|Microsoft.AspNetCore.Routing.EndpointMiddleware|INF|Executed endpoint 'IntegrationTest.Controllers.IpnProcessorController.Receive (IntegrationTest)'
2020-03-13 14:53:54.5823||80000007-0003-fc00-b63f-84710c7967bb|Microsoft.AspNetCore.Hosting.Diagnostics|INF|Request finished in 2218.3098ms 200 
2020-03-13 14:54:23.7351||||ERR|Manual investigation exception.
System.NullReferenceException: Object reference not set to an instance of an object.
   at IntegrationTest.Controllers.IpnProcessorController.ProcessIpnRequestBody(IpnDto ipnContext) in \\Mac\Home\Desktop\PayPaIntegrationTest\IntegrationTest\Controllers\IpnProcessorController.cs:line 197
   at IntegrationTest.Controllers.IpnProcessorController.ProcessVerificationResponse(IpnDto ipnContext) in \\Mac\Home\Desktop\PayPaIntegrationTest\IntegrationTest\Controllers\IpnProcessorController.cs:line 101
